…
    ## [1] "2020-01-22" "2020-01-22" "2020-01-22" "2020-01-22" "2020-01-22"
    ## [6] "2020-01-22"

Agora vamos ter uma noção do impacto do surto em cada país.

``` r
dados %>%group_by(Country) %>%
  summarise(Confirmed=max(Confirmed), Deaths=max(Deaths), Recovered = max(Recovered))
```

    ## # A tibble: 33 x 4
    ##    Country   Confirmed Deaths Recovered
    ##    <fct>         <dbl>  <dbl>     <dbl>
    ##  1 Australia         5      0         4
    ##  2 Belgium           1      0         0
    ##  3 Brazil            0      0         0
    ##  4 Cambodia          1      0         1
    ##  5 Canada            4      0         1
    ##  6 China         56249   1596      5623
    ##  7 Egypt             1      0         0
    ##  8 Finland           1      0         1
    ##  9 France           12      1         4
    ## 10 Germany          16      0         1
    ## # … with 23 more rows
…
3.  Um olhar mais atento às 10 províncias mais afetadas da China


``` r
dados_china<-dados[which(dados[,3]=='China'),]
dados_china %>%group_by(Province.State) %>%
  summarise(Confirmed=max(Confirmed), Deaths=max(Deaths), Recovered = max(Recovered))%>%
  arrange(desc(Confirmed))
```

    ## # A tibble: 34 x 4
    ##    Province.State Confirmed Deaths Recovered
    ##    <fct>              <dbl>  <dbl>     <dbl>
    ##  1 Hubei              56249   1596      5623
    ##  2 Guangdong           1294      2       410
    ##  3 Henan               1212     13       391
    ##  4 Zhejiang            1162      0       428
    ##  5 Hunan               1001      2       425
    ##  6 Anhui                950      6       221
    ##  7 Jiangxi              913      1       210
    ##  8 Jiangsu              604      0       186
    ##  9 Chongqing            544      5       184
    ## 10 Shandong             532      2       156
    ## # … with 24 more rows
…
